Introduction to gfdata • gfdata
…
#> Extracting spatial catch

#> Extracting survey indexes

#> Extracting aging precision

#> All data extracted and saved in the folder `pcod-cache`.

And to call the list of output files:

dat  <- readRDS(file.path("pcod-cache", "pacific-cod.rds"))
head(dat)

#> $survey_samples
#> # A tibble: 77,134 x 40
#>    trip_start_date     fishing_event_id  year month  gear survey_series_id survey_abbrev
#>    <dttm>                         <dbl> <int> <int> <dbl>            <dbl> <chr>        
#>  1 2014-10-01 00:00:00          3420684  2014    10     5               76 DOG          
#>  2 2019-10-01 00:00:00          5167333  2019    10     5               76 DOG          
#>  3 2003-08-13 00:00:00           309491  2003     8     5               39 HBLL INS N   
#>  4 2003-08-13 00:00:00           309493  2003     8     5               39 HBLL INS N   
#>  5 2003-08-13 00:00:00           309503  2003     8     5               39 HBLL INS N   
#>  6 2003-08-13 00:00:00           309506  2003     8     5               39 HBLL INS N   
#>  7 2003-08-13 00:00:00           309516  2003     8     5               39 HBLL INS N   
#>  8 2003-08-13 00:00:00           309517  2003     8     5               39 HBLL INS N   
#>  9 2003-08-13 00:00:00           309524  2003     8     5               39 HBLL INS N   
#> 10 2003-08-13 00:00:00           309478  2003     8     5               39 HBLL INS N   
#> # i 77,124 more rows
#> # i 33 more variables: survey_series_desc <chr>, survey_id <int>, major_stat_area_code <chr>,
#> #   major_stat_area_name <chr>, minor_stat_area_code <chr>, species_code <chr>,
#> #   species_common_name <chr>, species_science_name <chr>, specimen_id <dbl>, sample_id <dbl>,
#> #   sex <dbl>, age_specimen_collected <int>, age <dbl>, sampling_desc <chr>,
#> #   ageing_method_code <dbl>, length <dbl>, weight <int>, maturity_code <dbl>, maturity_name <chr>,
#> #   maturity_desc <chr>, maturity_convention_code <dbl>, maturity_convention_desc <chr>, ...
#> 
#> $commercial_samples
#> # A tibble: 155,282 x 54
#>    trip_start_date     trip_end_date       trip_year  year month   day time_deployed
#>    <dttm>              <dttm>                  <int> <dbl> <int> <int> <dttm>       
#>  1 1962-04-19 00:00:00 1962-04-30 00:00:00      1962  1962     4     2 NA           
#>  2 1962-04-19 00:00:00 1962-04-30 00:00:00      1962  1962     4     2 NA           
#>  3 1962-04-19 00:00:00 1962-04-30 00:00:00      1962  1962     4     2 NA           
#>  4 1962-04-19 00:00:00 1962-04-30 00:00:00      1962  1962     4     2 NA           
#>  5 1962-04-19 00:00:00 1962-04-30 00:00:00      1962  1962     4     2 NA           
#>  6 1962-04-19 00:00:00 1962-04-30 00:00:00      1962  1962     4     2 NA           
#>  7 1962-04-19 00:00:00 1962-04-30 00:00:00      1962  1962     4     2 NA           
#>  8 1962-04-19 00:00:00 1962-04-30 00:00:00      1962  1962     4     2 NA           
#>  9 1962-04-19 00:00:00 1962-04-30 00:00:00      1962  1962     4     2 NA           
#> 10 1962-04-19 00:00:00 1962-04-30 00:00:00      1962  1962     4     2 NA           
#> # i 155,272 more rows
#> # i 47 more variables: time_retrieved <dttm>, trip_id <dbl>, fishing_event_id <dbl>,
#> #   latitude <dbl>, lat_start <dbl>, lat_end <dbl>, longitude <dbl>, lon_start <dbl>,
#> #   lon_end <dbl>, best_depth <dbl>, gear_code <dbl>, gear_desc <chr>, species_code <chr>,
#> #   species_common_name <chr>, species_science_name <chr>, sample_id <dbl>, specimen_id <dbl>,
#> #   sex <dbl>, age_specimen_collected <int>, age <dbl>, ageing_method_code <dbl>, length <dbl>,
#> #   weight <int>, maturity_code <dbl>, maturity_convention_code <dbl>, ...
#> 
#> $catch
#> # A tibble: 333,430 x 27
#>    database_name trip_id  fishing_event_id fishery_sector   trip_category gear   best_date          
#>    <chr>         <chr>    <chr>            <chr>            <chr>         <chr>  <dttm>             
#>  1 GFCatch       54000002 1                GROUNDFISH TRAWL <NA>          BOTTO~ 1954-01-04 00:00:00
#>  2 GFCatch       54000054 1                GROUNDFISH TRAWL <NA>          BOTTO~ 1954-01-04 00:00:00
#>  3 GFCatch       54000001 1                GROUNDFISH TRAWL <NA>          BOTTO~ 1954-01-04 00:00:00
#>  4 GFCatch       54000055 1                GROUNDFISH TRAWL <NA>          BOTTO~ 1954-01-04 00:00:00
#>  5 GFCatch       54000034 1                GROUNDFISH TRAWL <NA>          BOTTO~ 1954-01-05 00:00:00
#>  6 GFCatch       54000003 1                GROUNDFISH TRAWL <NA>          BOTTO~ 1954-01-07 00:00:00
#>  7 GFCatch       54000036 4                GROUNDFISH TRAWL <NA>          BOTTO~ 1954-01-07 00:00:00
#>  8 GFCatch       54000061 1                GROUNDFISH TRAWL <NA>          BOTTO~ 1954-01-07 00:00:00
#>  9 GFCatch       54000036 3                GROUNDFISH TRAWL <NA>          BOTTO~ 1954-01-07 00:00:00
#> 10 GFCatch       54000037 1                GROUNDFISH TRAWL <NA>          BOTTO~ 1954-01-07 00:00:00
#> # i 333,420 more rows
#> # i 20 more variables: fe_start_date <dttm>, fe_end_date <dttm>, lat <dbl>, lon <dbl>,
#> #   best_depth <int>, species_code <chr>, dfo_stat_area_code <chr>, dfo_stat_subarea_code <int>,
#> #   species_scientific_name <chr>, species_common_name <chr>, landed_kg <dbl>, discarded_kg <dbl>,
#> #   landed_pcs <int>, discarded_pcs <int>, major_stat_area_code <chr>, minor_stat_area_code <chr>,
#> #   major_stat_area_name <chr>, vessel_name <chr>, vessel_registration_number <chr>, year <dbl>
#> 
#> $cpue_spatial
#> # A tibble: 77,392 x 11
#>     year best_date           major_stat_area_code trip_id fishing_event_id   lat   lon
#>    <int> <dttm>              <chr>                  <int>            <int> <dbl> <dbl>
#>  1  2007 2007-05-08 09:50:00 06                     83395           732412  51.4 -129.
#>  2  2007 2007-05-08 11:15:00 06                     83395           732415  51.4 -129.
#>  3  2007 2007-05-07 16:30:00 06                     83395           732418  51.3 -129.
#>  4  2007 2007-05-08 19:55:00 06                     83395           732419  51.3 -129.
#>  5  2007 2007-05-07 09:30:00 07                     83739           736980  52.4 -130.
#>  6  2007 2007-05-11 08:07:00 05                     83739           736990  50.8 -129.
#>  7  2007 2007-05-08 17:26:00 08                     83916           726785  54.5 -131.
#>  8  2007 2007-05-07 13:17:00 08                     83916           726787  54.5 -131.
#>  9  2007 2007-05-08 11:14:00 08                     83916           726788  54.5 -131.
#> 10  2007 2007-05-08 07:15:00 08                     83916           726790  54.5 -131.
#> # i 77,382 more rows
#> # i 4 more variables: vessel_registration_number <int>, species_scientific_name <chr>,
#> #   species_common_name <chr>, cpue <dbl>
#> 
#> $cpue_spatial_ll
#> # A tibble: 8,899 x 16
#>     year best_date           fishery_sector vessel_registration_num~1 gear  trip_id fishing_event_id
#>    <int> <dttm>              <chr>                              <int> <chr>   <int>            <int>
#>  1  2006 2006-03-12 12:00:00 halibut                            30850 long~   60792           512243
#>  2  2006 2006-03-06 09:30:00 halibut                            22452 long~   60809           512797
#>  3  2006 2006-03-07 10:10:00 halibut                            22452 long~   60809           512802
#>  4  2006 2006-03-07 12:00:00 halibut                            22452 long~   60809           512803
#>  5  2006 2006-03-09 20:00:00 halibut                            22452 long~   60809           512806
#>  6  2006 2006-03-10 10:45:00 halibut                            23703 long~   60944           511671
#>  7  2006 2006-03-11 14:45:00 halibut                            23703 long~   60944           511683
#>  8  2006 2006-03-12 09:15:00 halibut                            23703 long~   60944           511701
#>  9  2006 2006-03-12 17:00:00 halibut                            23703 long~   60944           511705
#> 10  2006 2006-03-13 23:59:00 halibut                            22452 long~   61099           513046
#> # i 8,889 more rows
#> # i abbreviated name: 1: vessel_registration_number
#> # i 9 more variables: lat <dbl>, lon <dbl>, species_code <chr>, species_scientific_name <chr>,
#> #   species_common_name <chr>, landed_round_kg <dbl>, cpue <int>, total_released_pcs <int>,
#> #   major_stat_area_code <chr>
#> 
#> $catch_spatial
#> # A tibble: 77,392 x 11
#>     year best_date           major_stat_area_code trip_id fishing_event_id   lat   lon
#>    <int> <dttm>              <chr>                  <int>            <int> <dbl> <dbl>
#>  1  2007 2007-12-28 14:25:00 01                     99701           881231  48.9 -123.
#>  2  2007 2007-12-28 16:23:00 01                     99701           881232  48.9 -123.
#>  3  2007 2007-12-28 18:13:00 01                     99701           881233  48.9 -123.
#>  4  2007 2007-12-28 20:10:00 01                     99701           881234  48.9 -123.
#>  5  2007 2007-12-29 08:20:00 01                     99701           881235  48.9 -123.
#>  6  2007 2007-12-29 10:01:00 01                     99701           881236  48.9 -123.
#>  7  2007 2007-12-28 08:35:00 01                     99705           881398  49.3 -123.
#>  8  2007 2007-12-29 15:01:00 01                     99705           881402  49.2 -123.
#>  9  2007 2007-12-29 10:48:00 01                     99711           881395  49.3 -123.
#> 10  2007 2007-04-05 17:50:00 01                     82028           880764  48.9 -123.
#> # i 77,382 more rows
#> # i 4 more variables: vessel_registration_number <int>, species_scientific_name <chr>,
#> #   species_common_name <chr>, catch <dbl>
…
